%YAML 1.1
%TAG !u! tag:unity3d.com,2011:
--- !u!21 &2100000
Material:
  serializedVersion: 6
  m_ObjectHideFlags: 0
  m_CorrespondingSourceObject: {fileID: 0}
  m_PrefabInstance: {fileID: 0}
  m_PrefabAsset: {fileID: 0}
  m_Name: Escudo
  m_Shader: {fileID: -6465566751694194690, guid: 51f429aaa11d00f4691e3ffaea591b60,
    type: 3}
  m_ShaderKeywords: 
  m_LightmapFlags: 4
  m_EnableInstancingVariants: 0
  m_DoubleSidedGI: 0
  m_CustomRenderQueue: -1
  stringTagMap: {}
  disabledShaderPasses: []
  m_SavedProperties:
    serializedVersion: 3
    m_TexEnvs: []
    m_Floats:
    - Vector1_107F6CB4: 0.6
    m_Colors:
    - Color_A4B4FA72: {r: 0.1175284, g: 3.832188, b: 0, a: 0}
